{
  "page": 1,
  "total_results": 19704,
  "total_pages": 986,
  "results": [
    {
      "vote_count": 7007,
      "id": 198663,
      "video": false,
      "vote_average": 7,
      "title": "The Maze Runner",
      "popularity": 396.91294,
      "poster_path": "/coss7RgL0NH6g4fC2s5atvf3dFO.jpg",
      "original_language": "en",
      "original_title": "The Maze Runner",
      "genre_ids": [
        28,
        9648,
        878,
        53
      ],
      "backdrop_path": "/lkOZcsXcOLZYeJ2YxJd3vSldvU4.jpg",
      "adult": false,
      "overview": "Set in a post-apocalyptic world, young Thomas is deposited in a community of boys after his memory is erased, soon learning they're all trapped in a maze that will require him to join forces with fellow “runners” for a shot at escape.",
      "release_date": "2014-09-10"
    },
    {
      "vote_count": 520,
      "id": 337167,
      "video": false,
      "vote_average": 6.5,
      "title": "Fifty Shades Freed",
      "popularity": 365.352829,
      "poster_path": "/jjPJ4s3DWZZvI4vw8Xfi4Vqa1Q8.jpg",
      "original_language": "en",
      "original_title": "Fifty Shades Freed",
      "genre_ids": [
        18,
        10749
      ],
      "backdrop_path": "/9ywA15OAiwjSTvg3cBs9B7kOCBF.jpg",
      "adult": false,
      "overview": "Believing they have left behind shadowy figures from their past, newlyweds Christian and Ana fully embrace an inextricable connection and shared life of luxury. But just as she steps into her role as Mrs. Grey and he relaxes into an unfamiliar stability, new threats could jeopardize their happy ending before it even begins.",
      "release_date": "2018-02-07"
    },
    {
      "vote_count": 125,
      "id": 441614,
      "video": false,
      "vote_average": 4.7,
      "title": "Loving",
      "popularity": 349.762203,
      "poster_path": "/6uOMVZ6oG00xjq0KQiExRBw2s3P.jpg",
      "original_language": "es",
      "original_title": "Amar",
      "genre_ids": [
        10749
      ],
      "backdrop_path": "/iBM6zvlOmcfodGhUa36sy7pM2Er.jpg",
      "adult": false,
      "overview": "Laura and Carlos love each other as if every day was the last, and perhaps that first love intensity is what will tear them apart a year later.",
      "release_date": "2017-04-21"
    },
    {
      "vote_count": 3381,
      "id": 335984,
      "video": false,
      "vote_average": 7.4,
      "title": "Blade Runner 2049",
      "popularity": 273.520311,
      "poster_path": "/gajva2L0rPYkEWjzgFlBXCAVBE5.jpg",
      "original_language": "en",
      "original_title": "Blade Runner 2049",
      "genre_ids": [
        9648,
        878,
        53
      ],
      "backdrop_path": "/mVr0UiqyltcfqxbAUcLl9zWL8ah.jpg",
      "adult": false,
      "overview": "Thirty years after the events of the first film, a new blade runner, LAPD Officer K, unearths a long-buried secret that has the potential to plunge what's left of society into chaos. K's discovery leads him on a quest to find Rick Deckard, a former LAPD blade runner who has been missing for 30 years.",
      "release_date": "2017-10-04"
    },
    {
      "vote_count": 6173,
      "id": 269149,
      "video": false,
      "vote_average": 7.7,
      "title": "Zootopia",
      "popularity": 233.387846,
      "poster_path": "/sM33SANp9z6rXW8Itn7NnG1GOEs.jpg",
      "original_language": "en",
      "original_title": "Zootopia",
      "genre_ids": [
        16,
        12,
        10751,
        35
      ],
      "backdrop_path": "/mhdeE1yShHTaDbJVdWyTlzFvNkr.jpg",
      "adult": false,
      "overview": "Determined to prove herself, Officer Judy Hopps, the first bunny on Zootopia's police force, jumps at the chance to crack her first case - even if it means partnering with scam-artist fox Nick Wilde to solve the mystery.",
      "release_date": "2016-02-11"
    },
    {
      "vote_count": 5802,
      "id": 211672,
      "video": false,
      "vote_average": 6.4,
      "title": "Minions",
      "popularity": 226.792183,
      "poster_path": "/q0R4crx2SehcEEQEkYObktdeFy.jpg",
      "original_language": "en",
      "original_title": "Minions",
      "genre_ids": [
        10751,
        16,
        12,
        35
      ],
      "backdrop_path": "/qLmdjn2fv0FV2Mh4NBzMArdA0Uu.jpg",
      "adult": false,
      "overview": "Minions Stuart, Kevin and Bob are recruited by Scarlet Overkill, a super-villain who, alongside her inventor husband Herb, hatches a plot to take over the world.",
      "release_date": "2015-06-17"
    },
    {
      "vote_count": 7284,
      "id": 321612,
      "video": false,
      "vote_average": 6.8,
      "title": "Beauty and the Beast",
      "popularity": 193.087645,
      "poster_path": "/tWqifoYuwLETmmasnGHO7xBjEtt.jpg",
      "original_language": "en",
      "original_title": "Beauty and the Beast",
      "genre_ids": [
        10751,
        14,
        10749
      ],
      "backdrop_path": "/6aUWe0GSl69wMTSWWexsorMIvwU.jpg",
      "adult": false,
      "overview": "A live-action adaptation of Disney's version of the classic tale of a cursed prince and a beautiful young woman who helps him break the spell.",
      "release_date": "2017-03-16"
    },
    {
      "vote_count": 5019,
      "id": 374720,
      "video": false,
      "vote_average": 7.4,
      "title": "Dunkirk",
      "popularity": 185.064747,
      "poster_path": "/ebSnODDg9lbsMIaWg2uAbjn7TO5.jpg",
      "original_language": "en",
      "original_title": "Dunkirk",
      "genre_ids": [
        28,
        18,
        36,
        53,
        10752
      ],
      "backdrop_path": "/4yjJNAgXBmzxpS6sogj4ftwd270.jpg",
      "adult": false,
      "overview": "The story of the miraculous evacuation of Allied soldiers from Belgium, Britain, Canada and France, who were cut off and surrounded by the German army from the beaches and harbour of Dunkirk between May 26th and June 4th 1940 during World War II.",
      "release_date": "2017-07-19"
    },
    {
      "vote_count": 8199,
      "id": 99861,
      "video": false,
      "vote_average": 7.3,
      "title": "Avengers: Age of Ultron",
      "popularity": 181.692308,
      "poster_path": "/t90Y3G8UGQp0f0DrP60wRu9gfrH.jpg",
      "original_language": "en",
      "original_title": "Avengers: Age of Ultron",
      "genre_ids": [
        28,
        12,
        878
      ],
      "backdrop_path": "/vXIrvKadue7GdySiVh3huoQZiMi.jpg",
      "adult": false,
      "overview": "When Tony Stark tries to jumpstart a dormant peacekeeping program, things go awry and Earth’s Mightiest Heroes are put to the ultimate test as the fate of the planet hangs in the balance. As the villainous Ultron emerges, it is up to The Avengers to stop him from enacting his terrible plans, and soon uneasy alliances and unexpected action pave the way for an epic and unique global adventure.",
      "release_date": "2015-04-22"
    },
    {
      "vote_count": 6826,
      "id": 245891,
      "video": false,
      "vote_average": 7,
      "title": "John Wick",
      "popularity": 169.126523,
      "poster_path": "/5vHssUeVe25bMrof1HyaPyWgaP.jpg",
      "original_language": "en",
      "original_title": "John Wick",
      "genre_ids": [
        28,
        53
      ],
      "backdrop_path": "/umC04Cozevu8nn3JTDJ1pc7PVTn.jpg",
      "adult": false,
      "overview": "Ex-hitman John Wick comes out of retirement to track down the gangsters that took everything from him.",
      "release_date": "2014-10-22"
    },
    {
      "vote_count": 3507,
      "id": 254128,
      "video": false,
      "vote_average": 6,
      "title": "San Andreas",
      "popularity": 165.387738,
      "poster_path": "/qey0tdcOp9kCDdEZuJ87yE3crSe.jpg",
      "original_language": "en",
      "original_title": "San Andreas",
      "genre_ids": [
        28,
        18,
        53
      ],
      "backdrop_path": "/cUfGqafAVQkatQ7N4y08RNV3bgu.jpg",
      "adult": false,
      "overview": "In the aftermath of a massive earthquake in California, a rescue-chopper pilot makes a dangerous journey across the state in order to rescue his estranged daughter.",
      "release_date": "2015-05-27"
    },
    {
      "vote_count": 2165,
      "id": 339964,
      "video": false,
      "vote_average": 6.6,
      "title": "Valerian and the City of a Thousand Planets",
      "popularity": 164.967461,
      "poster_path": "/jfIpMh79fGRqYJ6PwZLCntzgxlF.jpg",
      "original_language": "en",
      "original_title": "Valerian and the City of a Thousand Planets",
      "genre_ids": [
        12,
        878,
        28
      ],
      "backdrop_path": "/7WjMTRF6LDa4latRUIDM25xnDO0.jpg",
      "adult": false,
      "overview": "In the 28th century, Valerian and Laureline are special operatives charged with keeping order throughout the human territories. On assignment from the Minister of Defense, the two undertake a mission to Alpha, an ever-expanding metropolis where species from across the universe have converged over centuries to share knowledge, intelligence, and cultures. At the center of Alpha is a mysterious dark force which threatens the peaceful existence of the City of a Thousand Planets, and Valerian and Laureline must race to identify the menace and safeguard not just Alpha, but the future of the universe.",
      "release_date": "2017-07-20"
    },
    {
      "vote_count": 4217,
      "id": 216015,
      "video": false,
      "vote_average": 5.3,
      "title": "Fifty Shades of Grey",
      "popularity": 156.455203,
      "poster_path": "/jV8wnk3Jgz6f7degmT3lHNGI2tK.jpg",
      "original_language": "en",
      "original_title": "Fifty Shades of Grey",
      "genre_ids": [
        18,
        10749,
        53
      ],
      "backdrop_path": "/zAd0MjURkOvJynIsqmLMBcICxUt.jpg",
      "adult": false,
      "overview": "When college senior Anastasia Steele steps in for her sick roommate to interview prominent businessman Christian Grey for their campus paper, little does she realize the path her life will take. Christian, as enigmatic as he is rich and powerful, finds himself strangely drawn to Ana, and she to him. Though sexually inexperienced, Ana plunges headlong into an affair -- and learns that Christian's true sexual proclivities push the boundaries of pain and pleasure.",
      "release_date": "2015-02-11"
    },
    {
      "vote_count": 124,
      "id": 335777,
      "video": false,
      "vote_average": 5.8,
      "title": "The Nut Job 2: Nutty by Nature",
      "popularity": 156.178942,
      "poster_path": "/xOfdQHNF9TlrdujyAjiKfUhxSXy.jpg",
      "original_language": "en",
      "original_title": "The Nut Job 2: Nutty by Nature",
      "genre_ids": [
        10751,
        16,
        12,
        35
      ],
      "backdrop_path": "/bd1X5nNrrAHVGG0MxsAeCOPPh1w.jpg",
      "adult": false,
      "overview": "When the evil mayor of Oakton decides to bulldoze Liberty Park and build a dangerous amusement park in its place, Surly Squirrel and his ragtag group of animal friends need to band together to save their home, defeat the mayor, and take back the park.",
      "release_date": "2017-08-11"
    },
    {
      "vote_count": 2977,
      "id": 258489,
      "video": false,
      "vote_average": 5.6,
      "title": "The Legend of Tarzan",
      "popularity": 150.631036,
      "poster_path": "/6FxOPJ9Ysilpq0IgkrMJ7PubFhq.jpg",
      "original_language": "en",
      "original_title": "The Legend of Tarzan",
      "genre_ids": [
        28,
        12
      ],
      "backdrop_path": "/pWNBPN8ghaKtGLcQBMwNyM32Wbm.jpg",
      "adult": false,
      "overview": "Tarzan, having acclimated to life in London, is called back to his former home in the jungle to investigate the activities at a mining encampment.",
      "release_date": "2016-06-29"
    },
    {
      "vote_count": 252,
      "id": 347882,
      "video": false,
      "vote_average": 5.2,
      "title": "Sleight",
      "popularity": 148.803144,
      "poster_path": "/wridRvGxDqGldhzAIh3IcZhHT5F.jpg",
      "original_language": "en",
      "original_title": "Sleight",
      "genre_ids": [
        18,
        53,
        28,
        878
      ],
      "backdrop_path": "/2SEgJ0mHJ7TSdVDbkGU061tR33K.jpg",
      "adult": false,
      "overview": "A young street magician is left to take care of his little sister after his mother's passing and turns to drug dealing in the Los Angeles party scene to keep a roof over their heads. When he gets into trouble with his supplier, his sister is kidnapped and he is forced to rely on both his sleight of hand and brilliant mind to save her.",
      "release_date": "2017-04-28"
    },
    {
      "vote_count": 9024,
      "id": 271110,
      "video": false,
      "vote_average": 7.1,
      "title": "Captain America: Civil War",
      "popularity": 135.096134,
      "poster_path": "/kSBXou5Ac7vEqKd97wotJumyJvU.jpg",
      "original_language": "en",
      "original_title": "Captain America: Civil War",
      "genre_ids": [
        12,
        28,
        878
      ],
      "backdrop_path": "/m5O3SZvQ6EgD5XXXLPIP1wLppeW.jpg",
      "adult": false,
      "overview": "Following the events of Age of Ultron, the collective governments of the world pass an act designed to regulate all superhuman activity. This polarizes opinion amongst the Avengers, causing two factions to side with Iron Man or Captain America, which causes an epic battle between former allies.",
      "release_date": "2016-04-27"
    },
    {
      "vote_count": 6590,
      "id": 346364,
      "video": false,
      "vote_average": 7.1,
      "title": "It",
      "popularity": 128.201524,
      "poster_path": "/9E2y5Q7WlCVNEhP5GiVTjhEhx1o.jpg",
      "original_language": "en",
      "original_title": "It",
      "genre_ids": [
        18,
        27,
        53
      ],
      "backdrop_path": "/tcheoA2nPATCm2vvXw2hVQoaEFD.jpg",
      "adult": false,
      "overview": "In a small town in Maine, seven children known as The Losers Club come face to face with life problems, bullies and a monster that takes the shape of a clown called Pennywise.",
      "release_date": "2017-09-05"
    },
    {
      "vote_count": 1901,
      "id": 392044,
      "video": false,
      "vote_average": 6.7,
      "title": "Murder on the Orient Express",
      "popularity": 127.93957,
      "poster_path": "/iBlfxlw8qwtUS0R8YjIU7JtM6LM.jpg",
      "original_language": "en",
      "original_title": "Murder on the Orient Express",
      "genre_ids": [
        80,
        18,
        9648
      ],
      "backdrop_path": "/2J283YNxKhxAqHeVegUJ5mzLfGb.jpg",
      "adult": false,
      "overview": "Genius Belgian detective Hercule Poirot investigates the murder of an American tycoon aboard the Orient Express train.",
      "release_date": "2017-11-03"
    },
    {
      "vote_count": 10,
      "id": 394823,
      "video": false,
      "vote_average": 5.5,
      "title": "Robby and Toby's Fantastic Voyager",
      "popularity": 120.302372,
      "poster_path": "/ssCEE0bfj5gawzwZeGfqrGQtU3f.jpg",
      "original_language": "de",
      "original_title": "Robbi, Tobbi und das Fliewatüüt",
      "genre_ids": [
        12,
        10751
      ],
      "backdrop_path": "/gZF2EfM8ov834pCzRpt1xt01SUy.jpg",
      "adult": false,
      "overview": "One day, robot Robby enters into a life of the most creative little boy, Toby. Robby had been separated from his robot parents when his spaceship crashed. Toby decides to offer his help and the two of them become friends.",
      "release_date": "2016-12-01"
    }
  ]
}